Forename,Surname,Email,University,Course
Koby,Dare,Astrid@salma.com,,
Kelli,Dicki,Ivory@ashtyn.me,,
Golden,Carter,Ari@flo.tv,,
Emory,Koch,Gene_Hilpert@laurie.io,,
Marjorie,Kilback,Antonia.Hauck@giuseppe.tv,,
Ernest,Hoeger,Maritza_Mann@abelardo.tv,,
Rebecca,Hudson,Reynold_Ferry@bennett.us,,
Josefina,Hirthe,Augustine@cassie.tv,,
Wanda,Ebert,Amina.Farrell@charlie.net,,
Burnice,Denesik,Tyrese@don.ca,,
Harold,Moen,Neil@merlin.name,,
Brennon,Spencer,Alexandria@eva.io,,
Stanley,Ziemann,Micaela@millie.info,,
Forest,Rempel,Chyna_Nolan@elody.org,,
Gregory,Zboncak,Annamae_Runte@soledad.us,,
Valentine,Weimann,Jeromy_Blick@katrine.biz,,
Alexandria,Waelchi,Everette_Torphy@halle.biz,,
Florian,Altenwerth,Adelbert.Ryan@francisca.org,,
Faye,Zieme,Joannie.Brown@sigurd.co.uk,,
Raleigh,Beatty,Alessandra_Hayes@jamal.biz,,
Dolly,Kuhic,Sonny@golda.net,,
Mikel,Koepp,Rosella@cruz.biz,,
May,Pfannerstill,Dave@carlee.me,,
Otho,Douglas,Walter@karley.biz,,
Napoleon,Conroy,Charley.Orn@frances.co.uk,,
Elza,Doyle,Isobel@simone.biz,,
Maci,Schulist,Reginald.Klein@keshawn.name,,
Kyler,Hansen,Lorine@rebeka.com,,
Jean,Conn,Zackary.Dickinson@gonzalo.info,,
Reilly,Yost,Herman@avis.me,,
Shad,Quigley,Roy@judah.com,,
Beatrice,Quitzon,Jana@herta.name,,
Lonny,Langworth,Sophia.Paucek@jamir.net,,
Rosalinda,Kiehn,Gia@nestor.us,,
Rebekah,Parker,Faustino@shane.us,,
Rhoda,Kuhlman,Roel@kianna.net,,
Judd,Cruickshank,Bell@buddy.co.uk,,
Sarah,Yundt,Marcia@noe.org,,
Russ,Pacocha,Shakira_Kessler@moriah.co.uk,,
Kali,Purdy,Ignatius@madison.info,,
Janick,Block,Lamont@david.info,,
Ford,Waelchi,Marta.Grimes@malinda.org,,
Francesca,Batz,Janie.Klocko@dallin.net,,
Lukas,Rogahn,Gage.Willms@ruben.me,,
Wilhelmine,Funk,Daphne@darryl.biz,,
Jude,Nader,Payton@rupert.org,,
Frankie,Stroman,Saul@gia.name,,
Mina,Jaskolski,Amos_Effertz@jennie.info,,
Mack,Zieme,Martin@isabelle.com,,
Celestine,Tromp,Loy@evalyn.us,,
Zella,Nitzsche,Bridgette@gordon.us,,
Ila,Kuphal,Terrance.Rowe@mario.co.uk,,
Eda,Cruickshank,Abelardo@elza.ca,,
Jaylen,Koepp,Norbert@kristian.io,,
Kristina,Kohler,Aidan@nona.name,,
Sean,Ondricka,Kristin.Rolfson@madelyn.tv,,
Estelle,Leuschke,Chauncey.Hoeger@jeramie.tv,,
Roselyn,Funk,Korbin@hallie.io,,
Kariane,Romaguera,Jocelyn_Fadel@lauryn.com,,
Adrian,Nitzsche,Markus.Gulgowski@nicolas.tv,,
Maggie,Windler,Shayna.Lesch@donny.io,,
Ken,Blanda,Modesta_Aufderhar@belle.co.uk,,
Antone,Reilly,Ford@garfield.name,,
Yadira,Cassin,Anastacio@murray.net,,
Marge,Macejkovic,Retha@griffin.me,,
Rogers,Feest,Keshawn_Kuvalis@orlando.name,,
Candelario,Fadel,Kailee_Casper@reina.me,,
Eldridge,Shields,Rachel_Block@olin.info,,
Lavina,Romaguera,Cathrine@virgie.us,,
Matt,Hessel,Skyla@gonzalo.net,,
Barrett,Donnelly,Sheila.Abshire@david.io,,
Betty,Hagenes,Linda@monte.me,,
Alphonso,Schmeler,Raphael_Senger@vernon.biz,,
Selmer,Shields,Michelle.Rice@pat.me,,
Earl,Kemmer,Terry.Rau@brennan.com,,
Sharon,Kunde,Julius@isabell.io,,
Jeffry,Jacobs,Juliana.Stanton@magnolia.ca,,
Eliane,Ritchie,Kaleigh.Durgan@verner.us,,
Howard,Erdman,Arthur_Stroman@quinn.com,,
Lance,Schimmel,Dovie.Williamson@alycia.org,,
Elliott,Tillman,Bethel@jess.com,,
Emanuel,Boyle,Claude@brent.us,,
Norma,Feest,Abdullah.Terry@leonardo.net,,
Jenifer,O'Conner,Virgie@robert.name,,
Lilliana,Towne,Henri@breana.org,,
Verner,Padberg,Florencio@barney.com,,
Adelia,Stiedemann,Jessika.Nader@glennie.name,,
Tristin,Turcotte,Joyce_Jaskolski@emmalee.name,,
Cooper,Pouros,Chase_Kub@emely.us,,
Judy,Romaguera,Charlotte@earl.info,,
Maxie,Tremblay,Annamae.Upton@roma.biz,,
Akeem,Barrows,Wellington@mara.ca,,
Florencio,Funk,Kenna@vicky.us,,
Margarita,Welch,Wellington_Cormier@novella.tv,,
Helmer,Legros,Ubaldo@bessie.us,,
Carole,Labadie,Josh@kelvin.io,,
Desiree,Klein,Isidro_Homenick@jerald.biz,,
Eloy,Kuvalis,Annabelle_Okuneva@christelle.com,,
Lucinda,Macejkovic,Ada_Wuckert@kirk.us,,
